<svg width="460.233" height="460.233" xmlns="http://www.w3.org/2000/svg">

 <g>
  <title>background</title>
  <rect fill="none" id="canvas_background" height="402" width="582" y="-1" x="-1"/>
 </g>
 <g>
  <title>Layer 1</title>
  <polygon id="svg_1" fill="#D8D9DD" points="309.125,441.463 151.34,441.463 171.063,352.014 289.402,352.014 "/>
  <rect id="svg_2" fill="#D8D9DD" height="18.296" width="197.193" y="431.298" x="131.636"/>
  <path id="svg_3" fill="#59595A" d="m439.677002,75.537003c0.011993,0 0.226013,0.139 0.226013,0.151001l0,255.996994l-419.341015,0l0,-255.996994c0,-0.012001 0.149,-0.151001 0.160999,-0.151001l418.954002,0l0,0zm20.556,128.072998l0,-127.958c0,-10.847 -9.671997,-20.444 -20.519989,-20.444l0,0l-419.026012,0c-10.847,0 -20.454,9.597 -20.454,20.444l0,127.958l0,0.003006l0,127.958984c0,10.848022 9.607,20.444 20.454,20.444l419.026012,0l0,0c10.847992,0 20.519989,-9.596985 20.519989,-20.444l0,-127.958984l0,-0.003006z"/>
  <rect id="svg_5" opacity="0.4" fill="#5B5B5F" height="18.296" width="197.193" y="431.298" x="131.636"/>
  <g id="svg_11"/>
  <g id="svg_12"/>
  <g id="svg_13"/>
  <g id="svg_14"/>
  <g id="svg_15"/>
  <g id="svg_16"/>
  <g id="svg_17"/>
  <g id="svg_18"/>
  <g id="svg_19"/>
  <g id="svg_20"/>
  <g id="svg_21"/>
  <g id="svg_22"/>
  <g id="svg_23"/>
  <g id="svg_24"/>
  <g id="svg_25"/>
  <g id="svg_38">
   <g transform="matrix(0.922558, 0, 0, 0.922558, -223.381, -287.64)" id="svg_33">
    <path fill-rule="evenodd" fill="#1f2933" d="m444.79248,472.739075c0,0.219971 -0.708984,0.399963 -1.575989,0.399963c-0.867004,0 -1.687988,0.179993 -1.824036,0.400024c-0.135986,0.219971 -0.867004,0.399963 -1.623962,0.399963c-0.757019,0 -1.376038,0.180054 -1.376038,0.400024c0,0.219971 -0.539978,0.400024 -1.200012,0.400024c-0.659973,0 -1.199951,0.179932 -1.199951,0.399963c0,0.220032 -0.439026,0.400024 -0.976013,0.400024c-0.536987,0 -1.088013,0.179993 -1.223999,0.399963c-0.135986,0.220032 -0.596985,0.400024 -1.023987,0.400024c-0.427002,0 -0.776001,0.179993 -0.776001,0.400024c0,0.219971 -0.359985,0.399963 -0.800049,0.399963c-0.439941,0 -0.799988,0.179993 -0.799988,0.400024c0,0.219971 -0.359985,0.399963 -0.799988,0.399963c-0.440002,0 -0.799988,0.180054 -0.799988,0.400024c0,0.219971 -0.236023,0.400024 -0.525024,0.400024c-0.287964,0 -0.91095,0.359985 -1.382996,0.799988c-0.471985,0.440002 -1.04895,0.799988 -1.281006,0.799988c-0.609009,0 -7.210999,6.688965 -7.210999,7.30603c0,0.284973 -0.359985,0.776978 -0.799988,1.093994c-0.440002,0.316956 -0.799988,0.896973 -0.799988,1.287964c0,0.391968 -0.179993,0.712036 -0.400024,0.712036c-0.219971,0 -0.399963,0.359985 -0.399963,0.800049c0,0.440002 -0.179993,0.799988 -0.400024,0.799988c-0.219971,0 -0.400024,0.359985 -0.400024,0.799988c0,0.440002 -0.179993,0.799988 -0.399963,0.799988c-0.220032,0 -0.400024,0.359985 -0.400024,0.800049c0,0.439941 -0.179993,0.799988 -0.399963,0.799988c-0.220032,0 -0.400024,0.528992 -0.400024,1.175964c0,0.647034 -0.179993,1.288025 -0.400024,1.424011c-0.85498,0.528015 -0.497986,15.601013 0.40802,17.213989c0.984985,1.754028 2.569031,3.386047 3.286011,3.386047c0.291016,0 0.789001,0.359985 1.106018,0.799988c0.338989,0.469971 1.034973,0.799988 1.687988,0.799988c0.612,0 1.112,0.179993 1.112,0.400024c0,0.220947 1.039978,0.399963 2.320007,0.399963c1.276001,0 2.522949,0.203003 2.770996,0.450989c1.143005,1.143005 2.59198,0.028015 2.294006,-1.766968c-0.153992,-0.926025 -0.438049,-1.744019 -0.632019,-1.817017c-0.19397,-0.073975 -0.353027,-0.658997 -0.353027,-1.299988c0,-0.642029 -0.179932,-1.166992 -0.399963,-1.166992c-0.247986,0 -0.400024,-2.132996 -0.400024,-5.600037c0,-3.46698 0.152039,-5.599976 0.400024,-5.599976c0.221985,0 0.399963,-1.067017 0.399963,-2.400024c0,-1.333008 0.17804,-2.399963 0.400024,-2.399963c0.219971,0 0.400024,-0.542053 0.400024,-1.205017c0,-1.158997 0.11499,-1.510986 1.138,-3.48999c0.253967,-0.492004 0.461975,-1.257019 0.461975,-1.700012c0,-0.442993 0.179993,-0.804993 0.400024,-0.804993c0.219971,0 0.399963,-0.273987 0.399963,-0.609009c0,-0.334045 0.986023,-1.594055 2.19104,-2.800049c1.205994,-1.205017 2.466003,-2.190979 2.799988,-2.190979c0.334961,0 0.609009,-0.180054 0.609009,-0.400024c0,-0.219971 0.528992,-0.400024 1.175964,-0.400024c0.647034,0 1.288025,-0.179993 1.424011,-0.399963c0.314026,-0.507019 3,-0.528015 3,-0.023987c0,0.20697 -0.179993,0.487976 -0.400024,0.623962c-0.219971,0.135986 -0.399963,1.22699 -0.399963,2.424011c0,1.197021 -0.179993,2.176025 -0.400024,2.176025c-0.219971,0 -0.399963,0.709045 -0.399963,1.57605c0,0.867004 -0.180054,1.687988 -0.400024,1.823975c-0.219971,0.135986 -0.400024,0.945984 -0.400024,1.799988c0,0.854004 -0.179932,1.664001 -0.399963,1.800049c-0.220032,0.135986 -0.400024,0.95697 -0.400024,1.823975c0,0.867004 -0.179993,1.575989 -0.399963,1.575989c-0.220032,0 -0.400024,0.708984 -0.400024,1.575989c0,0.867004 -0.179993,1.687988 -0.400024,1.824036c-0.219971,0.135986 -0.399963,1.216003 -0.399963,2.399963c0,1.184021 -0.179993,2.264038 -0.400024,2.400024c-0.219971,0.135986 -0.399963,0.945984 -0.399963,1.799988c0,0.854004 -0.180054,1.664001 -0.400024,1.799988c-0.219971,0.135986 -0.400024,0.957031 -0.400024,1.824036c0,0.867004 -0.179932,1.575989 -0.399963,1.575989c-0.220032,0 -0.400024,0.719971 -0.400024,1.599976c0,0.880005 -0.179993,1.600037 -0.399963,1.600037c-0.220032,0 -0.400024,0.708984 -0.400024,1.575989c0,0.867004 -0.179993,1.687988 -0.400024,1.823975c-0.219971,0.135986 -0.399963,1.30603 -0.399963,2.600037c0,1.294006 -0.179993,2.463989 -0.400024,2.599976c-0.219971,0.135986 -0.399963,0.95697 -0.399963,1.824036c0,0.866943 -0.180054,1.575989 -0.400024,1.575989c-0.219971,0 -0.400024,0.719971 -0.400024,1.599976c0,0.880005 -0.179932,1.600037 -0.399963,1.600037c-0.220032,0 -0.400024,0.708984 -0.400024,1.575989c0,0.867004 -0.179993,1.687988 -0.399963,1.823975c-0.220032,0.135986 -0.400024,0.945984 -0.400024,1.799988c0,0.854004 -0.179993,1.664001 -0.400024,1.800049c-0.219971,0.135986 -0.399963,1.316956 -0.399963,2.623962c0,1.317017 -0.17804,2.376038 -0.400024,2.376038c-0.219971,0 -0.399963,0.719971 -0.399963,1.599976c0,0.880005 -0.180054,1.599976 -0.400024,1.599976c-0.219971,0 -0.400024,0.708984 -0.400024,1.57605c0,0.866943 -0.179932,1.687988 -0.399963,1.823975c-0.220032,0.135986 -0.400024,0.855957 -0.400024,1.599976c0,0.744019 -0.179993,1.463989 -0.399963,1.600037c-0.220032,0.135986 -0.400024,0.945984 -0.400024,1.799988c0,0.854004 -0.179993,1.664001 -0.400024,1.799988c-0.219971,0.135986 -0.399963,1.216003 -0.399963,2.400024c0,1.18396 -0.179993,2.263977 -0.400024,2.399963c-0.219971,0.135986 -0.399963,0.957031 -0.399963,1.823975c0,0.867065 -0.180054,1.57605 -0.400024,1.57605c-0.219971,0 -0.400024,0.631958 -0.400024,1.405029c0,0.772949 -0.207947,1.73999 -0.462952,2.146973c-1.221985,1.958008 -0.752014,2.047974 10.649963,2.047974l10.613037,0l0,-1.176025c0,-0.646973 0.179993,-1.287964 0.399963,-1.42395c0.220032,-0.135986 0.400024,-0.856018 0.400024,-1.599976c0,-0.744019 0.179993,-1.463989 0.399963,-1.600037c0.220032,-0.135986 0.400024,-1.03595 0.400024,-2c0,-0.963989 0.179993,-1.864014 0.400024,-2c0.219971,-0.135986 0.399963,-1.22699 0.399963,-2.424011c0,-1.19696 0.179993,-2.175964 0.400024,-2.175964c0.220032,0 0.399963,-0.709045 0.399963,-1.575989c0,-0.867065 0.180054,-1.688049 0.400024,-1.824036c0.219971,-0.135986 0.400024,-0.945984 0.400024,-1.799988c0,-0.854004 0.179993,-1.664001 0.399963,-1.799988c0.220032,-0.136047 0.400024,-0.856018 0.400024,-1.600037c0,-0.744019 0.179993,-1.463989 0.399963,-1.599976c0.220032,-0.135986 0.400024,-0.945984 0.400024,-1.799988c0,-0.854004 0.179993,-1.664001 0.400024,-1.799988c0.219971,-0.136047 0.399963,-1.216064 0.399963,-2.400024c0,-1.184021 0.179993,-2.264038 0.400024,-2.400024c0.220032,-0.135986 0.399963,-0.945984 0.399963,-1.799988c0,-0.854004 0.180054,-1.664001 0.400024,-1.799988c0.219971,-0.135986 0.400024,-0.957031 0.400024,-1.823975c0,-0.867065 0.179993,-1.57605 0.399963,-1.57605c0.220032,0 0.400024,-0.719971 0.400024,-1.599976c0,-0.880005 0.179993,-1.599976 0.399963,-1.599976c0.220032,0 0.400024,-0.709045 0.400024,-1.57605c0,-0.866943 0.179993,-1.687988 0.400024,-1.823975c0.219971,-0.135986 0.399963,-1.046997 0.399963,-2.023987l0,-1.776001l10,0l10,0l0,-1.376038c0,-0.756958 0.179993,-1.487976 0.400024,-1.623962c0.220032,-0.136047 0.399963,-1.137024 0.399963,-2.223999c0,-1.087036 0.180054,-1.976013 0.400024,-1.976013c0.219971,0 0.400024,-0.900024 0.400024,-2l0,-2l-9.311035,0l-9.309998,0l0.151001,-1.700012c0.084045,-0.934998 0.314026,-1.870972 0.511047,-2.080017c0.19696,-0.208984 0.358948,-1.42395 0.358948,-2.699951c0,-1.280029 0.179016,-2.320007 0.400024,-2.320007c0.220032,0 0.399963,-0.709045 0.399963,-1.575989c0,-0.867065 0.180054,-1.688049 0.400024,-1.824036c0.219971,-0.135986 0.400024,-0.945984 0.400024,-1.799988c0,-0.854004 0.179993,-1.664001 0.399963,-1.799988c0.220032,-0.136047 0.400024,-0.957031 0.400024,-1.824036c0,-0.867004 0.179993,-1.575989 0.399963,-1.575989c0.220032,0 0.400024,-0.708984 0.400024,-1.575989c0,-0.867065 0.179993,-1.688049 0.400024,-1.824036c0.219971,-0.136047 0.399963,-0.687012 0.399963,-1.223999c0,-1.009033 1.278992,-1.41803 1.799988,-0.57605c0.136047,0.220032 1.036011,0.400024 2,0.400024c0.96405,0 1.864014,0.179993 2,0.400024c0.136047,0.219971 1.395996,0.399963 2.800049,0.399963c1.403992,0 2.664001,0.179993 2.799988,0.400024c0.135986,0.221008 1.929993,0.399963 4,0.399963c2.070007,0 3.864014,-0.178955 4,-0.399963c0.135986,-0.220032 0.687012,-0.400024 1.223999,-0.400024c0.536987,0 0.976013,-0.179993 0.976013,-0.399963c0,-0.220032 0.179993,-0.400024 0.399963,-0.400024c0.220032,0 0.400024,0.719971 0.400024,1.599976c0,0.880005 -0.179993,1.600098 -0.400024,1.600098c-0.219971,0 -0.399963,0.708984 -0.399963,1.575989c0,0.867004 -0.180054,1.687988 -0.400024,1.823975c-0.219971,0.135986 -0.400024,0.946045 -0.400024,1.800049c0,0.854004 -0.179932,1.66394 -0.399963,1.799988c-0.220032,0.135986 -0.400024,0.945984 -0.400024,1.799988c0,0.854004 -0.179993,1.664001 -0.399963,1.799988c-0.220032,0.135986 -0.400024,1.126038 -0.400024,2.200012c0,1.073975 -0.179993,2.063965 -0.400024,2.200012c-0.219971,0.135986 -0.399963,1.136963 -0.399963,2.223999c0,1.086975 -0.179993,1.976013 -0.400024,1.976013c-0.219971,0 -0.399963,0.719971 -0.399963,1.599976c0,0.880005 -0.180054,1.599976 -0.400024,1.599976c-0.219971,0 -0.400024,0.708984 -0.400024,1.57605c0,0.866943 -0.179932,1.687988 -0.399963,1.823975c-0.220032,0.135986 -0.400024,0.945984 -0.400024,1.799988c0,0.854004 -0.179993,1.664001 -0.399963,1.799988c-0.220032,0.135986 -0.400024,1.036011 -0.400024,2c0,0.963989 -0.179993,1.864014 -0.400024,2c-0.219971,0.135986 -0.399963,1.137024 -0.399963,2.223999c0,1.087036 -0.179993,1.976013 -0.400024,1.976013c-0.219971,0 -0.399963,0.708984 -0.399963,1.575989c0,0.867004 -0.180054,1.687988 -0.400024,1.824036c-0.219971,0.135986 -0.400024,1.046997 -0.400024,2.023987c0,0.97699 -0.179932,1.776001 -0.399963,1.776001c-0.220032,0 -0.400024,0.719971 -0.400024,1.599976c0,0.880005 -0.162964,1.600037 -0.360962,1.600037c-0.346985,0 -0.600037,1.515991 -1.085999,6.5c-0.123047,1.264954 -0.388,2.299988 -0.588989,2.299988c-0.200012,0 -0.364014,0.900024 -0.364014,2c0,1.099976 -0.180054,2 -0.400024,2c-0.245972,0 -0.400024,2 -0.400024,5.200012c0,3.200012 0.154053,5.200012 0.400024,5.200012c0.219971,0 0.400024,0.528992 0.400024,1.175964c0,0.647034 0.179993,1.288025 0.399963,1.424011c0.220032,0.135986 0.400024,0.687012 0.400024,1.223999c0,0.536987 0.179993,0.975952 0.399963,0.975952c0.220032,0 0.400024,0.256042 0.400024,0.568054c0,0.73999 3.492004,4.231995 4.231995,4.231995c0.312012,0 0.567993,0.179993 0.567993,0.400024c0,0.219971 0.360046,0.399963 0.799988,0.399963c0.440063,0 0.800049,0.179993 0.800049,0.399963c0,0.220032 0.528992,0.400024 1.175964,0.400024c0.647034,0 1.288025,0.180054 1.424011,0.400024c0.138,0.223022 1.995972,0.400024 4.200012,0.400024c2.203979,0 4.062012,-0.177002 4.200012,-0.400024c0.135986,-0.219971 0.95697,-0.400024 1.823975,-0.400024c0.867004,0 1.575989,-0.179993 1.575989,-0.400024c0,-0.219971 0.360046,-0.399963 0.799988,-0.399963c0.440063,0 0.800049,-0.179993 0.800049,-0.399963c0,-0.220032 0.359985,-0.400024 0.799988,-0.400024c0.440002,0 0.799988,-0.179993 0.799988,-0.400024c0,-0.219971 0.359985,-0.400024 0.799988,-0.400024c0.440002,0 0.799988,-0.179932 0.799988,-0.399963c0,-0.220032 0.360046,-0.399963 0.800049,-0.399963c0.440002,0 0.799988,-0.180054 0.799988,-0.400024c0,-0.219971 0.253967,-0.400024 0.565002,-0.400024c0.310974,0 1.661987,-1.079956 3.002991,-2.400024c2.527039,-2.487915 3.632019,-2.974976 3.632019,-1.599976c0,0.440063 0.179993,0.800049 0.399963,0.800049c0.220032,0 0.400024,0.277954 0.400024,0.616943c0,0.338989 0.359985,1.003052 0.799988,1.475037c0.440002,0.471985 0.799988,1.064026 0.799988,1.315979c0,0.250977 0.495056,0.710999 1.100037,1.021973c0.605042,0.310059 1.391052,0.881042 1.747009,1.267029c0.356018,0.387024 0.94104,0.703003 1.300049,0.703003c0.359009,0 0.652954,0.179993 0.652954,0.399963c0,0.220032 0.529053,0.400024 1.176025,0.400024c0.646973,0 1.288025,0.180054 1.424011,0.400024c0.138977,0.224976 2.062866,0.400024 4.399719,0.400024c2.337036,0 4.261047,-0.175049 4.400024,-0.400024c0.135986,-0.219971 0.867004,-0.400024 1.624023,-0.400024c0.756958,0 1.375977,-0.179993 1.375977,-0.400024c0,-0.219971 0.540039,-0.399963 1.200012,-0.399963c0.659973,0 1.200012,-0.179993 1.200012,-0.399963c0,-0.220032 0.359985,-0.400024 0.799988,-0.400024c0.440002,0 0.799988,-0.158997 0.799988,-0.353027c0,-0.194946 0.315002,-0.453979 0.700012,-0.575989c1.041992,-0.330017 3.008972,-1.575012 3.745972,-2.371033c0.356018,-0.384949 0.762024,-0.699951 0.901001,-0.699951c0.417053,0 0.285034,2.333008 -0.146973,2.599976c-0.220032,0.135986 -0.400024,1.036011 -0.400024,2c0,0.963989 -0.179993,1.864014 -0.399963,2c-0.220032,0.135986 -0.400024,1.227051 -0.400024,2.424011c0,1.197021 -0.179993,2.175964 -0.400024,2.175964c-0.219971,0 -0.399963,0.709045 -0.399963,1.57605c0,0.867004 -0.179993,1.687988 -0.400024,1.823975c-0.219971,0.135986 -0.399963,0.946045 -0.399963,1.800049c0,0.854004 -0.180054,1.66394 -0.400024,1.799927c-0.219971,0.136047 -0.400024,0.957031 -0.400024,1.824036c0,0.867004 -0.179932,1.575989 -0.399963,1.575989c-0.220032,0 -0.400024,0.799011 -0.400024,1.776001c0,0.977051 -0.179993,1.888062 -0.399963,2.024048c-0.220032,0.135986 -0.400024,1.215942 -0.400024,2.399963c0,1.184021 -0.179993,2.263977 -0.400024,2.399963c-0.219971,0.136047 -0.399963,0.957031 -0.399963,1.824036c0,0.867004 -0.179993,1.575989 -0.400024,1.575989c-0.219971,0 -0.399963,0.720032 -0.399963,1.599976c0,0.880005 -0.180054,1.600037 -0.400024,1.600037c-0.219971,0 -0.400024,0.360046 -0.400024,0.799988c0,0.733032 0.267029,0.800049 3.200012,0.800049c1.867004,0 3.200012,-0.166992 3.200012,-0.400024c0,-0.219971 0.719971,-0.400024 1.599976,-0.400024c0.880005,0 1.600037,-0.179993 1.600037,-0.400024c0,-0.219971 0.618958,-0.399963 1.375977,-0.399963c0.757019,0 1.488037,-0.179993 1.624023,-0.399963c0.135986,-0.220032 0.776978,-0.400024 1.424011,-0.400024c0.646973,0 1.176025,-0.179993 1.176025,-0.400024c0,-0.219971 0.888916,-0.400024 1.975952,-0.400024c1.087036,0 2.088013,-0.179932 2.223999,-0.399963c0.135986,-0.220032 0.867004,-0.399963 1.624023,-0.399963c1.094971,0 1.375977,-0.15802 1.375977,-0.776001c0,-0.427002 0.179993,-0.888062 0.400024,-1.024048c0.219971,-0.135986 0.400024,-0.945984 0.400024,-1.799988c0,-0.854004 0.179932,-1.664001 0.399963,-1.799988c0.220032,-0.135986 0.399963,-1.036011 0.399963,-2c0,-0.963989 0.180054,-1.864014 0.400024,-2c0.219971,-0.135986 0.400024,-1.125977 0.400024,-2.200012c0,-1.074036 0.179993,-2.064026 0.400024,-2.200012c0.219971,-0.135986 0.399963,-0.945984 0.399963,-1.799988c0,-0.854004 0.179993,-1.664001 0.399963,-1.799988c0.220032,-0.135986 0.400024,-0.957031 0.400024,-1.823975c0,-0.867065 0.179993,-1.57605 0.400024,-1.57605c0.219971,0 0.400024,-0.708984 0.400024,-1.575989c0,-0.867004 0.179932,-1.687988 0.399963,-1.824036c0.220032,-0.135986 0.399963,-1.03595 0.399963,-2c0,-0.963989 0.180054,-1.863953 0.400024,-2c0.219971,-0.135986 0.400024,-0.866943 0.400024,-1.623962c0,-0.757019 0.179993,-1.376038 0.400024,-1.376038c0.219971,0 0.399963,0.180054 0.399963,0.400024c0,0.220032 0.359985,0.400024 0.799988,0.400024c0.440002,0 0.800049,0.179993 0.800049,0.400024c0,0.219971 0.359985,0.399963 0.799927,0.399963c0.440063,0 0.800049,0.179993 0.800049,0.399963c0,0.220032 0.528992,0.400024 1.176025,0.400024c0.646973,0 1.287964,0.180054 1.42395,0.400024c0.140991,0.229004 2.196045,0.400024 4.800049,0.400024c2.603943,0 4.658936,-0.171021 4.799927,-0.400024c0.135986,-0.219971 0.946045,-0.400024 1.800049,-0.400024c0.854004,0 1.66394,-0.179993 1.799988,-0.400024c0.135986,-0.219971 0.596985,-0.399963 1.023987,-0.399963c0.427002,0 0.776001,-0.179993 0.776001,-0.399963c0,-0.220032 0.342041,-0.400024 0.759033,-0.400024c1.156982,0 5.177002,-2.245972 6.439941,-3.598999c0.617065,-0.660034 1.286011,-1.20105 1.487061,-1.20105c0.439941,0 2.513977,-2.112915 2.513977,-2.560913c0,-0.175049 0.494995,-0.795044 1.100037,-1.379028c0.60498,-0.583008 1.35498,-1.555054 1.667969,-2.160034c0.312012,-0.60498 0.71698,-1.099976 0.900024,-1.099976c0.182007,0 0.33197,-0.278015 0.33197,-0.617004c0,-0.338989 0.359985,-1.002991 0.799988,-1.475037c0.440002,-0.471985 0.800049,-1.094971 0.800049,-1.382935c0,-0.289063 0.179932,-0.525024 0.399963,-0.525024c0.220032,0 0.399963,-0.348999 0.399963,-0.776001c0,-0.427002 0.180054,-0.888 0.400024,-1.023987c0.219971,-0.136047 0.400024,-0.676025 0.400024,-1.200012c0,-0.523987 0.179993,-1.064026 0.400024,-1.200012c0.219971,-0.135986 0.399963,-0.687012 0.399963,-1.223999c0,-0.536987 0.179993,-0.976013 0.399963,-0.976013c0.220032,0 0.400024,-0.539978 0.400024,-1.199951c0,-0.660034 0.179993,-1.200012 0.400024,-1.200012c0.219971,0 0.400024,-0.528992 0.400024,-1.176025c0,-0.646973 0.179932,-1.288025 0.399963,-1.424011c0.220032,-0.135986 0.399963,-0.945984 0.399963,-1.799988c0,-0.854004 0.180054,-1.664001 0.400024,-1.799988c0.219971,-0.135986 0.400024,-1.575989 0.400024,-3.200012c0,-1.623962 0.179993,-3.064026 0.400024,-3.200012c0.24292,-0.149963 0.399963,-3.062988 0.399963,-7.399963c0,-4.337036 -0.157043,-7.25 -0.399963,-7.400024c-0.220032,-0.135986 -0.400024,-1.22699 -0.400024,-2.424011c0,-1.19696 -0.180054,-2.175964 -0.400024,-2.175964c-0.219971,0 -0.400024,-0.416016 -0.400024,-0.924988c0,-0.508057 -0.359985,-1.311035 -0.799927,-1.78302c-0.440063,-0.471985 -0.800049,-1.049988 -0.800049,-1.283997c0,-0.660034 -4.307007,-4.807983 -4.990967,-4.807983c-0.335022,0 -0.609009,-0.180054 -0.609009,-0.400024c0,-0.219971 -0.359985,-0.400024 -0.800049,-0.400024c-0.439941,0 -0.799927,-0.179993 -0.799927,-0.399963c0,-0.220032 -0.529053,-0.400024 -1.176025,-0.400024c-0.646973,0 -1.288025,-0.179993 -1.424011,-0.399963c-0.325989,-0.527039 -8.873962,-0.527039 -9.200012,0c-0.135986,0.219971 -0.776978,0.399963 -1.42395,0.399963c-0.647034,0 -1.176025,0.179993 -1.176025,0.400024c0,0.219971 -0.540039,0.399963 -1.200012,0.399963c-0.659973,0 -1.200012,0.180054 -1.200012,0.400024c0,0.219971 -0.359985,0.400024 -0.799988,0.400024c-0.440002,0 -0.799988,0.179932 -0.799988,0.399963c0,0.220032 -0.359985,0.400024 -0.800049,0.400024c-0.439941,0 -0.799927,0.179993 -0.799927,0.399963c0,0.220032 -0.180054,0.400024 -0.400024,0.400024c-0.220032,0 -0.400024,-0.359985 -0.400024,-0.799988c0,-0.440002 0.179993,-0.799988 0.400024,-0.799988c0.219971,0 0.400024,-0.709045 0.400024,-1.57605c0,-0.866943 0.179932,-1.687988 0.399963,-1.823975c0.220032,-0.135986 0.399963,-0.867004 0.399963,-1.624023l0,-1.375977l-10.799927,0l-10.800049,0l0,1.575989c0,0.867004 -0.179993,1.687988 -0.400024,1.824036c-0.219971,0.135986 -0.399963,1.046997 -0.399963,2.023987c0,0.97699 -0.179993,1.776001 -0.399963,1.776001c-0.220032,0 -0.400024,0.719971 -0.400024,1.599976c0,0.880005 -0.180054,1.600037 -0.400024,1.600037c-0.219971,0 -0.400024,0.68396 -0.400024,1.519958c0,0.835999 -0.162964,1.690979 -0.362976,1.900024c-0.200012,0.208984 -0.470032,1.325012 -0.600037,2.47998c-0.600952,5.328003 -0.736938,6.100037 -1.075928,6.100037c-0.197998,0 -0.361023,0.708984 -0.361023,1.575989c0,0.867004 -0.179993,1.687988 -0.399963,1.823975c-0.220032,0.135986 -0.400024,0.945984 -0.400024,1.799988c0,0.854004 -0.180054,1.664001 -0.400024,1.800049c-0.219971,0.135986 -0.400024,0.945984 -0.400024,1.799988c0,0.854004 -0.179932,1.664001 -0.399963,1.799988c-0.220032,0.135986 -0.399963,1.125977 -0.399963,2.200012c0,1.073975 -0.180054,2.063965 -0.400024,2.200012c-0.220032,0.135986 -0.400024,1.03595 -0.400024,2c0,0.963989 -0.179993,1.863953 -0.400024,2c-0.219971,0.135986 -0.399963,0.95697 -0.399963,1.823975c0,0.867004 -0.179993,1.575989 -0.400024,1.575989c-0.219971,0 -0.399963,0.638 -0.399963,1.416992c0,0.864014 -0.312012,1.752014 -0.800049,2.275024c-0.439941,0.471985 -0.799988,1.274963 -0.799988,1.78302c0,0.508972 -0.179993,0.924988 -0.399963,0.924988c-0.220032,0 -0.400024,0.359985 -0.400024,0.799988c0,0.440002 -0.150024,0.799988 -0.332031,0.799988c-0.182983,0 -0.587952,0.494019 -0.899963,1.096985c-0.778992,1.504028 -3.007996,3.703003 -3.755005,3.703003c-0.336975,0 -0.612976,0.180054 -0.612976,0.400024c0,0.219971 -0.359985,0.400024 -0.800049,0.400024c-0.439941,0 -0.799988,0.179932 -0.799988,0.399963c0,0.914978 -4.393005,0.442993 -5.417969,-0.58197c-1.044006,-1.044006 -1.548035,-7.817993 -0.582031,-7.817993c0.220032,0 0.400024,-0.720032 0.400024,-1.600037c0,-0.880005 0.179993,-1.599976 0.399963,-1.599976c0.220032,0 0.400024,-0.709045 0.400024,-1.575989c0,-0.867065 0.179993,-1.688049 0.400024,-1.824036c0.219971,-0.135986 0.399963,-0.945984 0.399963,-1.799988c0,-0.854004 0.179993,-1.664001 0.400024,-1.799988c0.220032,-0.136047 0.399963,-1.317017 0.399963,-2.624023c0,-1.317017 0.17804,-2.375977 0.400024,-2.375977c0.219971,0 0.400024,-0.720032 0.400024,-1.600037c0,-0.880005 0.179993,-1.599976 0.399963,-1.599976c0.220032,0 0.400024,-0.708984 0.400024,-1.575989c0,-0.867004 0.179993,-1.688049 0.399963,-1.824036c0.220032,-0.135986 0.400024,-1.046997 0.400024,-2.023987c0,-0.97699 0.179993,-1.776001 0.400024,-1.776001c0.219971,0 0.399963,-0.708984 0.399963,-1.575989c0,-0.867004 0.179993,-1.687988 0.400024,-1.823975c0.220032,-0.136047 0.399963,-1.216064 0.399963,-2.400024c0,-1.184021 0.180054,-2.264038 0.400024,-2.400024c0.219971,-0.135986 0.400024,-1.046997 0.400024,-2.023987c0,-0.97699 0.179993,-1.776001 0.399963,-1.776001c0.220032,0 0.400024,-0.720032 0.400024,-1.599976c0,-0.880005 0.179993,-1.600037 0.399963,-1.600037c0.222046,0 0.400024,-1.06897 0.400024,-2.406982l0,-2.406982l-10.299988,0.106995l-10.299744,0.106995l-0.122009,1.900024c-0.067017,1.044983 -0.291992,1.899963 -0.5,1.899963c-0.208008,0 -0.377991,0.720032 -0.377991,1.600037c0,0.880005 -0.180054,1.599976 -0.400024,1.599976c-0.219971,0 -0.400024,0.708984 -0.400024,1.575989c0,0.867004 -0.179932,1.687988 -0.399963,1.824036c-0.220032,0.135986 -0.400024,1.03595 -0.400024,2c0,0.963989 -0.179993,1.863953 -0.399963,2c-0.220032,0.135986 -0.400024,1.22699 -0.400024,2.42395c0,1.197021 -0.179993,2.176025 -0.400024,2.176025c-0.219971,0 -0.399963,0.708984 -0.399963,1.575989c0,0.867004 -0.179993,1.687988 -0.400024,1.824036c-0.219971,0.135986 -0.400024,1.046997 -0.400024,2.023987c0,0.97699 -0.180054,1.776001 -0.400024,1.776001c-0.219971,0 -0.400024,0.719971 -0.400024,1.599976c0,0.880005 -0.179932,1.600037 -0.399963,1.600037c-0.220032,0 -0.400024,0.79895 -0.400024,1.776001c0,0.97699 -0.179993,1.887939 -0.399963,2.023987c-0.220032,0.135986 -0.400024,1.316956 -0.400024,2.623962c0,1.317017 -0.177979,2.376038 -0.400024,2.376038c-0.219971,0 -0.399963,0.719971 -0.399963,1.599976c0,0.880005 -0.179993,1.600037 -0.400024,1.600037c-0.219971,0 -0.399963,0.539978 -0.399963,1.199951c0,0.660034 -0.180054,1.200012 -0.400024,1.200012c-0.219971,0 -0.400024,0.359985 -0.400024,0.799988c0,0.440002 -0.179932,0.800049 -0.399963,0.800049c-0.220032,0 -0.400024,0.271973 -0.400024,0.60498c0,0.708984 -0.710999,2.025024 -1.700012,3.150024c-0.384949,0.437988 -0.699951,0.954956 -0.699951,1.148987c0,0.485962 -0.791992,1.187988 -2.100037,1.863953c-0.60498,0.312012 -1.099976,0.717041 -1.099976,0.900024c0,0.182007 -0.359985,0.332031 -0.799988,0.332031c-0.440002,0 -0.800049,0.179932 -0.800049,0.399963c0,0.221985 -1.066956,0.400024 -2.399963,0.400024c-1.333008,0 -2.400024,-0.17804 -2.400024,-0.400024c0,-0.220032 -0.359985,-0.399963 -0.799988,-0.399963c-0.622009,0 -0.799988,-0.267029 -0.799988,-1.200012c0,-0.660034 -0.179993,-1.200012 -0.400024,-1.200012c-0.219971,0 -0.399963,-0.348999 -0.399963,-0.776001c0,-0.427002 0.179993,-0.888 0.399963,-1.023987c0.220032,-0.136047 0.400024,-1.046997 0.400024,-2.023987c0,-0.977051 0.179993,-1.776001 0.399963,-1.776001c0.220032,0 0.400024,-0.709045 0.400024,-1.57605c0,-0.866943 0.179993,-1.687988 0.400024,-1.823975c0.219971,-0.135986 0.399963,-1.036011 0.399963,-2c0,-0.963989 0.179993,-1.864014 0.400024,-2c0.220032,-0.135986 0.399963,-1.22699 0.399963,-2.424011c0,-1.19696 0.180054,-2.175964 0.400024,-2.175964c0.219971,0 0.400024,-0.709045 0.400024,-1.57605c0,-0.866943 0.179993,-1.687988 0.399963,-1.823975c0.220032,-0.135986 0.400024,-0.945984 0.400024,-1.799988c0,-0.854004 0.179993,-1.664001 0.399963,-1.799988c0.220032,-0.136047 0.400024,-0.856018 0.400024,-1.600037c0,-0.743958 0.179993,-1.463989 0.400024,-1.599976c0.219971,-0.136047 0.399963,-1.036011 0.399963,-2c0,-0.96405 0.179993,-1.864014 0.400024,-2c0.220032,-0.136047 0.399963,-1.126038 0.399963,-2.200012c0,-1.073975 0.180054,-2.064026 0.400024,-2.200012c0.219971,-0.135986 0.400024,-1.046997 0.400024,-2.023987c0,-0.97699 0.179993,-1.776001 0.399963,-1.776001c0.220032,0 0.400024,-0.719971 0.400024,-1.599976c0,-0.880005 0.179993,-1.600037 0.399963,-1.600037c0.220032,0 0.400024,-0.684021 0.400024,-1.519958c0,-0.83606 0.161987,-1.69104 0.359009,-1.900024c0.379028,-0.401001 0.73999,-2.468018 1.096985,-6.280029c0.117981,-1.265015 0.379028,-2.299988 0.580017,-2.299988c0.200012,0 0.364014,-0.708984 0.364014,-1.575989c0,-0.867004 0.179993,-1.687988 0.399963,-1.823975c0.220032,-0.136047 0.400024,-0.856018 0.400024,-1.600037c0,-0.743958 0.179993,-1.463989 0.399963,-1.599976c0.220032,-0.136047 0.400024,-1.046997 0.400024,-2.023987c0,-0.977051 0.179993,-1.776062 0.400024,-1.776062c0.219971,0 0.399963,-0.709045 0.399963,-1.57605c0,-0.866943 0.179993,-1.687988 0.400024,-1.823975c0.220032,-0.135986 0.399963,-1.216003 0.399963,-2.400024c0,-1.18396 0.180054,-2.263977 0.400024,-2.399963c0.219971,-0.136047 0.400024,-1.046997 0.400024,-2.023987l0,-1.776001l-2.800049,0c-1.599976,0 -2.799988,0.170959 -2.799988,0.399963c0,0.232971 -1.325012,0.400024 -3.175964,0.400024c-1.747009,0 -3.288025,0.179993 -3.424011,0.399963c-0.679016,1.098999 -3.799988,0.442017 -3.799988,-0.799988c0,-0.659973 0.179993,-1.200012 0.399963,-1.200012c0.220032,0 0.400024,-0.438965 0.400024,-0.975952c0,-0.537048 0.179993,-1.088013 0.399963,-1.223999c0.220032,-0.136047 0.400024,-0.957031 0.400024,-1.824036l0,-1.575989l-2.799988,0c-1.600037,0 -2.799988,0.171021 -2.799988,0.400024c0,0.252991 -2.859009,0.399963 -7.776001,0.399963c-4.753052,0 -7.873047,-0.156006 -8.024048,-0.399963c-0.156982,-0.254028 -5.203979,-0.400024 -13.823975,-0.400024c-8.783997,0 -13.575989,0.140991 -13.575989,0.400024m230.39978,11.199951c-0.329956,0.213013 -1.984009,0.390991 -3.675964,0.394043c-1.692017,0.002991 -3.188049,0.185974 -3.324036,0.406006c-0.135986,0.219971 -1.395996,0.399963 -2.799927,0.399963c-1.404053,0 -2.664063,0.179993 -2.800049,0.400024c-0.135986,0.219971 -1.317017,0.399963 -2.624023,0.399963c-1.307007,0 -2.375977,0.16803 -2.375977,0.373047c0,0.205994 -0.494995,0.430969 -1.099976,0.5c-1.047974,0.120972 -1.106018,0.240967 -1.222046,2.526978c-0.067017,1.320007 -0.291992,2.571045 -0.5,2.78009c-0.208008,0.208984 -0.37793,1.063965 -0.37793,1.899963c0,0.835999 -0.180054,1.52002 -0.400024,1.52002c-0.220032,0 -0.400024,0.719971 -0.400024,1.599976c0,0.880005 -0.179993,1.600037 -0.400024,1.600037c-0.219971,0 -0.399963,0.708984 -0.399963,1.575989c0,0.867004 -0.179993,1.687988 -0.399963,1.823975c-0.220032,0.135986 -0.400024,0.857971 -0.400024,1.604004l0,1.356018l-2.300049,0.119995l-2.299927,0.119995l-0.12207,1.900024c-0.067017,1.044983 -0.291992,1.899963 -0.5,1.899963c-0.208008,0 -0.37793,0.720032 -0.37793,1.600037l0,1.599976l2,0c1.968994,0 2.870972,1.015015 1.599976,1.799988c-0.220032,0.135986 -0.400024,1.046997 -0.400024,2.023987c0,0.977051 -0.179993,1.776001 -0.400024,1.776001c-0.219971,0 -0.399963,0.720032 -0.399963,1.600037c0,0.879944 -0.179993,1.599976 -0.399963,1.599976c-0.220032,0 -0.400024,0.708984 -0.400024,1.575989c0,0.867004 -0.180054,1.687988 -0.400024,1.824036c-0.219971,0.135986 -0.400024,1.305969 -0.400024,2.599976c0,1.294006 -0.179932,2.463989 -0.399963,2.600037c-0.220032,0.135986 -0.399963,0.95697 -0.399963,1.823975c0,0.867004 -0.180054,1.575989 -0.400024,1.575989c-0.220032,0 -0.400024,0.720032 -0.400024,1.600037c0,0.880005 -0.179993,1.599976 -0.400024,1.599976c-0.219971,0 -0.399963,0.708984 -0.399963,1.575989c0,0.867004 -0.179993,1.687988 -0.399963,1.824036c-0.220032,0.135986 -0.400024,1.03595 -0.400024,2c0,0.963989 -0.180054,1.863953 -0.400024,2c-0.219971,0.135986 -0.400024,1.22699 -0.400024,2.42395c0,1.710999 -0.133972,2.176025 -0.628967,2.176025c-0.808044,0 -1.770996,0.963013 -1.770996,1.770996c0,0.346008 -0.179993,0.629028 -0.399963,0.629028c-0.220032,0 -0.400024,0.271973 -0.400024,0.60498c0,0.708984 -0.71106,2.025024 -1.700012,3.150024c-0.38501,0.437988 -0.700012,0.954956 -0.700012,1.148987c0,0.485962 -0.791992,1.187988 -2.099976,1.863953c-0.60498,0.312012 -1.099976,0.717041 -1.099976,0.900024c0,0.182007 -0.360046,0.332031 -0.800049,0.332031c-0.440002,0 -0.799988,0.179932 -0.799988,0.399963c0,0.221985 -1.067017,0.400024 -2.399963,0.400024c-1.333008,0 -2.400024,-0.17804 -2.400024,-0.400024c0,-0.220032 -0.359985,-0.399963 -0.800049,-0.399963c-0.621948,0 -0.799927,-0.267029 -0.799927,-1.200012c0,-0.660034 -0.180054,-1.200012 -0.400024,-1.200012c-0.220032,0 -0.400024,-0.348999 -0.400024,-0.776001c0,-0.427002 0.179993,-0.888 0.400024,-1.023987c0.219971,-0.136047 0.400024,-1.046997 0.400024,-2.023987c0,-0.977051 0.179932,-1.776001 0.399963,-1.776001c0.220032,0 0.399963,-0.709045 0.399963,-1.57605c0,-0.866943 0.180054,-1.687988 0.400024,-1.823975c0.219971,-0.135986 0.400024,-1.036011 0.400024,-2c0,-0.963989 0.179993,-1.864014 0.400024,-2c0.219971,-0.135986 0.399963,-1.22699 0.399963,-2.424011c0,-1.19696 0.179993,-2.175964 0.399963,-2.175964c0.220032,0 0.400024,-0.799011 0.400024,-1.776001c0,-0.977051 0.179993,-1.888062 0.400024,-2.024048c0.219971,-0.135986 0.400024,-0.95697 0.400024,-1.823975c0,-0.867004 0.179932,-1.575989 0.399963,-1.575989c0.220032,0 0.399963,-0.709045 0.399963,-1.575989c0,-0.867065 0.180054,-1.688049 0.400024,-1.824036c0.219971,-0.135986 0.400024,-0.945984 0.400024,-1.799988c0,-0.854004 0.179993,-1.664001 0.400024,-1.799988c0.219971,-0.136047 0.399963,-1.317017 0.399963,-2.624023c0,-1.317017 0.17804,-2.375977 0.399963,-2.375977c0.220032,0 0.400024,-0.720032 0.400024,-1.600037c0,-0.880005 0.179993,-1.599976 0.400024,-1.599976c0.219971,0 0.400024,-0.708984 0.400024,-1.575989c0,-0.867004 0.179932,-1.688049 0.399963,-1.824036c0.220032,-0.135986 0.399963,-1.046997 0.399963,-2.023987c0,-0.97699 0.180054,-1.776001 0.400024,-1.776001c0.219971,0 0.400024,-0.899963 0.400024,-2l0,-2l-10.35498,0l-10.354004,0l-0.274048,1.299988c-0.151001,0.715027 -0.367981,2.200012 -0.481995,3.300049c-0.11499,1.099976 -0.372009,2.170959 -0.57196,2.380005c-0.200073,0.208984 -0.363037,1.063965 -0.363037,1.899963c0,0.835999 -0.179993,1.52002 -0.400024,1.52002c-0.219971,0 -0.399963,0.719971 -0.399963,1.599976c0,0.880005 -0.179993,1.600037 -0.399963,1.600037c-0.220032,0 -0.400024,0.79895 -0.400024,1.776001c0,0.97699 -0.180054,1.887939 -0.400024,2.023987c-0.219971,0.135986 -0.400024,1.03595 -0.400024,2c0,0.963989 -0.179932,1.863953 -0.399963,2c-0.220032,0.135986 -0.399963,1.136963 -0.399963,2.223999c0,1.086975 -0.180054,1.976013 -0.400024,1.976013c-0.220032,0 -0.400024,0.708984 -0.400024,1.575989c0,0.867004 -0.179993,1.687988 -0.400024,1.823975c-0.219971,0.135986 -0.399963,0.945984 -0.399963,1.799988c0,0.854004 -0.179993,1.664001 -0.399963,1.800049c-0.220032,0.135986 -0.400024,0.920959 -0.400024,1.743958c0,0.822998 -0.161987,1.666992 -0.359009,1.876038c-0.338013,0.357971 -0.557007,1.513977 -1.092041,5.779968c-0.125,0.98999 -0.388977,1.971008 -0.588013,2.179993c-0.197998,0.208984 -0.360962,0.973999 -0.360962,1.700012c0,0.726013 -0.179993,1.320007 -0.400024,1.320007c-0.245972,0 -0.399963,2 -0.399963,5.200012c0,3.200012 0.153992,5.200012 0.399963,5.200012c0.220032,0 0.400024,0.528992 0.400024,1.175964c0,0.647034 0.179993,1.288025 0.400024,1.424011c0.219971,0.135986 0.400024,0.687012 0.400024,1.223999c0,0.536987 0.179932,0.975952 0.399963,0.975952c0.220032,0 0.399963,0.256042 0.399963,0.568054c0,0.312988 0.824036,1.393005 1.832031,2.399963c1.006958,1.008057 2.087036,1.832031 2.400024,1.832031c0.312012,0 0.567993,0.179993 0.567993,0.400024c0,0.219971 0.359985,0.399963 0.799988,0.399963c0.440002,0 0.799988,0.179993 0.799988,0.399963c0,0.220032 0.528992,0.400024 1.176025,0.400024c0.646973,0 1.287964,0.180054 1.42395,0.400024c0.138062,0.223022 1.996033,0.400024 4.200073,0.400024c2.203979,0 4.061951,-0.177002 4.199951,-0.400024c0.135986,-0.219971 0.957031,-0.400024 1.823975,-0.400024c0.867065,0 1.57605,-0.179993 1.57605,-0.400024c0,-0.219971 0.359985,-0.399963 0.799988,-0.399963c0.440002,0 0.799988,-0.179993 0.799988,-0.399963c0,-0.220032 0.359985,-0.400024 0.800049,-0.400024c0.439941,0 0.799927,-0.179993 0.799927,-0.400024c0,-0.219971 0.359985,-0.400024 0.800049,-0.400024c0.439941,0 0.799988,-0.179932 0.799988,-0.399963c0,-0.220032 0.359985,-0.399963 0.799988,-0.399963c0.440002,0 0.800049,-0.180054 0.800049,-0.400024c0,-0.219971 0.255981,-0.400024 0.56897,-0.400024c0.313965,0 1.844971,-1.26001 3.402954,-2.799988c3.138062,-3.101013 4.028076,-3.453979 4.028076,-1.600037c0,0.660034 0.179932,1.200073 0.399963,1.200073c0.220032,0 0.399963,0.359985 0.399963,0.799927c0,0.440063 0.180054,0.800049 0.400024,0.800049c0.219971,0 0.400024,0.276001 0.400024,0.613037c0,0.795959 2.590942,3.386963 3.386963,3.386963c0.337036,0 0.613037,0.179993 0.613037,0.400024c0,0.219971 0.359985,0.399963 0.799988,0.399963c0.440002,0 0.799988,0.179993 0.799988,0.399963c0,0.220032 0.438965,0.400024 0.976013,0.400024c0.536987,0 1.087952,0.180054 1.223999,0.400024c0.135986,0.219971 1.846008,0.400024 3.799988,0.400024c1.953979,0 3.664001,-0.180054 3.800049,-0.400024c0.135986,-0.219971 0.686951,-0.400024 1.223999,-0.400024c0.536987,0 0.975952,-0.179993 0.975952,-0.400024c0,-0.219971 0.27301,-0.399963 0.606995,-0.399963c0.792053,0 5.79303,-5.001038 5.79303,-5.79303c0,-0.333984 0.179993,-0.606934 0.400024,-0.606934c0.219971,0 0.399963,-0.359985 0.399963,-0.800049c0,-0.439941 0.179993,-0.799988 0.399963,-0.799988c0.220032,0 0.400024,-0.324036 0.400024,-0.720032c0,-0.395996 0.164001,-0.890991 0.36499,-1.099976c1.102051,-1.147949 0.666016,-3.576965 -0.664978,-3.704956c-0.730042,-0.071045 -1.299988,0.060974 -1.299988,0.299988c0,0.233948 -0.540039,0.424988 -1.200012,0.424988c-0.659973,0 -1.200012,-0.179993 -1.200012,-0.400024c0,-0.219971 -0.282959,-0.399963 -0.629028,-0.399963c-0.807983,0 -1.770996,-0.963013 -1.770996,-1.770996c0,-0.346008 -0.179932,-0.629028 -0.399963,-0.629028c-0.220032,0 -0.399963,-0.539978 -0.399963,-1.200012c0,-0.659973 0.179932,-1.199951 0.399963,-1.199951c0.220032,0 0.399963,-0.709045 0.399963,-1.57605c0,-0.866943 0.180054,-1.687988 0.400024,-1.823975c0.219971,-0.135986 0.400024,-0.945984 0.400024,-1.799988c0,-0.854004 0.179993,-1.664001 0.400024,-1.799988c0.219971,-0.136047 0.399963,-1.317017 0.399963,-2.624023c0,-1.317017 0.17804,-2.375977 0.399963,-2.375977c0.220032,0 0.400024,-0.709045 0.400024,-1.57605c0,-0.866943 0.179993,-1.687988 0.400024,-1.823975c0.219971,-0.135986 0.400024,-0.945984 0.400024,-1.799988c0,-0.854004 0.179932,-1.664001 0.399963,-1.799988c0.220032,-0.136047 0.399963,-0.957031 0.399963,-1.824036c0,-0.867004 0.180054,-1.575989 0.400024,-1.575989c0.219971,0 0.400024,-0.708984 0.400024,-1.575989c0,-0.867004 0.179993,-1.688049 0.400024,-1.824036c0.219971,-0.135986 0.399963,-1.216003 0.399963,-2.399963c0,-1.184021 0.179993,-2.264038 0.399963,-2.400024c0.220032,-0.135986 0.400024,-1.046997 0.400024,-2.023987c0,-0.97699 0.179993,-1.776001 0.400024,-1.776001c0.219971,0 0.400024,-0.719971 0.400024,-1.599976c0,-0.880005 0.179932,-1.600037 0.399963,-1.600037c0.220032,0 0.399963,-0.593994 0.399963,-1.320007c0,-3.088989 0.541992,-3.473022 4.900024,-3.47699c3.867004,-0.002991 3.900024,-0.010986 3.900024,-0.979004c0,-0.536987 0.179993,-1.088013 0.400024,-1.223999c0.219971,-0.135986 0.399963,-1.317017 0.399963,-2.623962l0,-2.376038l-3.600037,0l-3.599976,0l0,-2c0,-1.099976 0.179993,-2 0.400024,-2c0.219971,0 0.400024,-0.720032 0.400024,-1.599976c0,-0.880005 0.179932,-1.600037 0.399963,-1.600037c0.220032,0 0.399963,-0.708984 0.399963,-1.575989c0,-0.867004 0.180054,-1.687988 0.400024,-1.823975c0.219971,-0.136047 0.400024,-0.921021 0.400024,-1.744019c0,-0.822998 0.162964,-1.667053 0.360962,-1.876099c0.198975,-0.208984 0.453003,-1.189941 0.565063,-2.179932c0.111938,-0.990051 0.334961,-2.322998 0.496948,-2.963013c0.406982,-1.609009 -0.901978,-2.69104 -2.223022,-1.837036m-369.418793,4.908997c-1.457001,0.731018 -1.781006,2.167053 -1.781006,7.891113c0,7.10199 0.661011,8.399963 4.279999,8.399963c0.943024,0 1.320007,0.182983 1.320007,0.640015c0,0.351013 0.540009,1.143005 1.200012,1.76001c0.660004,0.617004 1.199982,1.326965 1.199982,1.578979c0,1.164978 1.962006,2.421021 3.782013,2.421021l1.817993,0l0,-3.200012l0,-3.200012l5.720001,0c8.558014,0 8.679993,-0.117981 8.679993,-8.399963c0,-5.886108 -0.311981,-7.150085 -1.953979,-7.926086c-1.289001,-0.608032 -23.046021,-0.577026 -24.265015,0.034973m36.619019,15.936096l0,16.44397l1.496979,-0.281006c0.822998,-0.153992 1.632996,-0.36499 1.800018,-0.467957c0.166992,-0.103027 0.302979,-6.567017 0.302979,-14.364014l0,-14.176025l28.000031,0l28,0l0,22.640015l0,22.640015l-1.360016,1.359985l-1.360016,1.359985l-25.615997,0c-14.088989,0 -25.700989,0.135986 -25.803986,0.30304c-0.102997,0.166992 -0.313995,0.97699 -0.468018,1.799988l-0.280975,1.497009l27.03598,0l27.036011,0l2.208008,-2.209045l2.208984,-2.208008l0,-25.391968l0,-25.391052l-31.599976,0l-31.600006,0l0,16.445068m10.799988,-7.244995c-0.666992,0.666992 -0.799988,1.332947 -0.799988,4c0,4.906982 -0.21402,4.799988 9.600006,4.799988c8.649963,0 9.599976,-0.238037 9.599976,-2.400024c0,-0.710999 0.266998,-0.799988 2.400024,-0.799988c2.132996,0 2.399963,0.088989 2.399963,0.799988c0,1.725037 1.350037,2.400024 4.800018,2.400024l3.199982,0l0,2.400024l0,2.399963l-3.199982,0c-4.360992,0 -4.800018,0.439026 -4.800018,4.799988c0,4.361023 0.439026,4.800049 4.800018,4.800049l3.199982,0l0,2.399963l0,2.400024l-3.199982,0c-4.360992,0 -4.800018,0.438965 -4.800018,4.799988c0,4.906982 -0.213989,4.799988 9.600037,4.799988c9.813965,0 9.599976,0.106995 9.599976,-4.799988c0,-4.361023 -0.438995,-4.799988 -4.799988,-4.799988l-3.200012,0l0,-2.400024l0,-2.399963l3.200012,0c4.360992,0 4.799988,-0.439026 4.799988,-4.800049c0,-2.666992 -0.132996,-3.333008 -0.799988,-4c-0.666992,-0.666992 -1.333008,-0.799988 -4,-0.799988l-3.200012,0l0,-2.399963l0,-2.400024l3.200012,0c2.666992,0 3.333008,-0.132996 4,-0.799988c0.666992,-0.667053 0.799988,-1.333008 0.799988,-4c0,-4.907043 0.213989,-4.799988 -9.599976,-4.799988c-8.650024,0 -9.600037,0.237976 -9.600037,2.399963c0,0.710999 -0.266968,0.799988 -2.399963,0.799988c-2.133026,0 -2.400024,-0.088989 -2.400024,-0.799988c0,-2.161987 -0.950012,-2.399963 -9.599976,-2.399963c-7.46701,0 -8.053009,0.052979 -8.800018,0.799988m-29.200012,10.399963c0,0.220032 -0.255981,0.400024 -0.567993,0.400024c-0.73999,0 -4.231995,3.492004 -4.231995,4.231995c0,0.312012 -0.179993,0.567993 -0.399994,0.567993c-0.242004,0 -0.399994,1.732971 -0.399994,4.400024c0,2.666992 0.15799,4.399963 0.399994,4.399963c0.220001,0 0.399994,0.255981 0.399994,0.567993c0,0.73999 3.492004,4.232056 4.231995,4.232056c0.312012,0 0.567993,0.179932 0.567993,0.399963c0,0.242004 1.733002,0.400024 4.400024,0.400024c2.666992,0 4.399994,-0.15802 4.399994,-0.400024c0,-0.220032 0.255981,-0.399963 0.567993,-0.399963c0.73999,0 4.231995,-3.492065 4.231995,-4.232056c0,-0.312012 0.179993,-0.567993 0.399994,-0.567993c0.242004,0 0.400024,-1.732971 0.400024,-4.399963c0,-2.667053 -0.15802,-4.400024 -0.400024,-4.400024c-0.220001,0 -0.399994,-0.255981 -0.399994,-0.567993c0,-0.73999 -3.492004,-4.231995 -4.231995,-4.231995c-0.312012,0 -0.567993,-0.179993 -0.567993,-0.400024c0,-0.242004 -1.733002,-0.399963 -4.399994,-0.399963c-2.667023,0 -4.400024,0.157959 -4.400024,0.399963m30.159027,2.163025c-0.122009,0.317993 -0.163025,0.997009 -0.091003,1.507996l0.131989,0.929016l8.600006,0l8.599976,0l0,-1.400024l0,-1.399963l-8.508972,-0.108032c-7.127991,-0.089966 -8.546021,-0.013977 -8.731995,0.471008m-23.253021,1.396973c5.833008,2.5 5.317993,10.447021 -0.806,12.419983c-4.580994,1.477051 -9.582001,-3.488953 -8.083984,-8.026978c1.388,-4.208008 5.073975,-6.028992 8.889984,-4.393005m249.093842,4.440002c0,0.220032 0.277954,0.400024 0.617981,0.400024c0.789001,0 2.58197,1.776978 2.58197,2.557983c0,0.327026 0.180054,0.705994 0.400024,0.842041c0.219971,0.135986 0.400024,0.945984 0.400024,1.799988c0,0.854004 0.179993,1.664001 0.400024,1.799988c0.219971,0.135986 0.399963,1.485962 0.399963,3c0,1.513977 -0.179993,2.864014 -0.399963,3c-0.220032,0.135986 -0.400024,1.575989 -0.400024,3.200012c0,1.623962 -0.180054,3.063965 -0.400024,3.200012c-0.219971,0.135986 -0.400024,1.03595 -0.400024,2c0,0.963989 -0.179932,1.863953 -0.399963,2c-0.220032,0.135986 -0.399963,1.03595 -0.399963,2c0,0.963989 -0.180054,1.863953 -0.400024,2c-0.220032,0.135986 -0.400024,0.675964 -0.400024,1.199951c0,0.524048 -0.179993,1.064026 -0.400024,1.200012c-0.219971,0.135986 -0.399963,0.687012 -0.399963,1.223999c0,0.536987 -0.179993,0.976013 -0.399963,0.976013c-0.220032,0 -0.400024,0.359985 -0.400024,0.799988c0,0.440002 -0.180054,0.799988 -0.400024,0.799988c-0.219971,0 -0.400024,0.234009 -0.400024,0.52002c0,0.735962 -0.940979,2.672974 -1.299927,2.677002c-0.165039,0.002014 -0.300049,0.276001 -0.300049,0.609985c0,0.791992 -5.000977,5.79303 -5.792969,5.79303c-0.333984,0 -0.607056,0.179993 -0.607056,0.399963c0,0.220032 -0.438965,0.400024 -0.975952,0.400024c-0.536987,0 -1.088013,0.179993 -1.223999,0.400024c-0.592041,0.957947 -3.77002,0.313965 -5.285034,-1.071045c-0.605957,-0.554993 -0.694946,-3.570984 -0.11499,-3.928955c0.219971,-0.136047 0.400024,-1.126038 0.400024,-2.200012c0,-1.074036 0.179993,-2.064026 0.400024,-2.200012c0.219971,-0.135986 0.399963,-1.046997 0.399963,-2.023987c0,-0.97699 0.179993,-1.776001 0.399963,-1.776001c0.220032,0 0.400024,-0.720032 0.400024,-1.600037c0,-0.880005 0.179993,-1.599976 0.400024,-1.599976c0.219971,0 0.400024,-0.708984 0.400024,-1.575989c0,-0.867004 0.179932,-1.688049 0.399963,-1.824036c0.220032,-0.135986 0.399963,-1.036011 0.399963,-2c0,-0.963989 0.180054,-1.864014 0.400024,-2c0.219971,-0.135986 0.400024,-1.22699 0.400024,-2.42395c0,-1.197021 0.179993,-2.176025 0.400024,-2.176025c0.219971,0 0.399963,-0.799011 0.399963,-1.776001c0,-0.97699 0.179993,-1.888 0.399963,-2.023987c0.220032,-0.136047 0.400024,-0.957031 0.400024,-1.824036c0,-0.867004 0.179993,-1.575989 0.400024,-1.575989c0.219971,0 0.400024,-0.720032 0.400024,-1.599976c0,-0.880005 0.179932,-1.600037 0.399963,-1.600037c0.220032,0 0.399963,-0.274963 0.399963,-0.610962c0,-0.335022 0.805054,-1.415039 1.789063,-2.400024c0.984985,-0.984009 2.064941,-1.789001 2.399963,-1.789001c0.335999,0 0.611023,-0.179993 0.611023,-0.399963c0,-0.220032 0.539978,-0.400024 1.199951,-0.400024c0.660034,0 1.200073,-0.179993 1.200073,-0.400024c0,-0.219971 0.359985,-0.399963 0.799927,-0.399963c0.440063,0 0.800049,0.179993 0.800049,0.399963m-214.636841,0.55304c-0.743988,1.938965 -0.112976,2.44696 3.036987,2.44696l3,0l0,-1.399963l0,-1.400024l-2.905975,-0.117981c-2.266998,-0.091003 -2.955017,0.011963 -3.131012,0.471008m-11.023987,1.759949c-1.243011,1.038025 -3.835999,3.223999 -5.761017,4.859009c-3.285004,2.786987 -3.608978,2.966003 -5.23999,2.881042c-1,-0.052002 -1.738007,0.087952 -1.738007,0.328979c0,0.22998 -0.438995,0.41803 -0.975983,0.41803c-0.537018,0 -1.088013,0.179932 -1.223999,0.399963c-0.136017,0.220032 -0.597015,0.400024 -1.024017,0.400024c-0.427002,0 -0.776001,0.179993 -0.776001,0.399963c0,0.220032 -0.359985,0.400024 -0.799988,0.400024c-0.440002,0 -0.800018,0.179993 -0.800018,0.400024c0,0.219971 -0.539978,0.399963 -1.199982,0.399963c-0.660004,0 -1.200012,0.179993 -1.200012,0.400024c0,0.255981 -3.544983,0.399963 -9.834991,0.399963l-9.834015,0l-2.165985,2.254028c-1.19101,1.239014 -2.165009,2.407959 -2.165009,2.596985c0,0.189026 -1.26001,1.617981 -2.799988,3.177002c-1.540009,1.557983 -2.800018,3.049988 -2.800018,3.314026c0,0.265015 -0.359985,0.740967 -0.799988,1.057983c-0.878998,0.633972 -1.200989,5.304993 -0.399994,5.799988c0.220001,0.135986 0.399994,0.676025 0.399994,1.200012c0,0.523987 0.179993,1.063965 0.399994,1.200012c0.220001,0.135986 0.399994,0.675964 0.399994,1.200012c0,0.523987 0.180023,1.063965 0.400024,1.199951c0.220001,0.135986 0.399994,0.676025 0.399994,1.200012c0,0.523987 0.179993,1.064026 0.399994,1.200012c0.220001,0.135986 0.399994,0.676025 0.399994,1.200012c0,0.523987 0.179993,1.063965 0.399994,1.200012c0.220001,0.135986 0.406006,0.641968 0.413025,1.123962c0.023987,1.679016 0.89798,2.276001 3.330994,2.276001c1.240997,0 2.255981,-0.179993 2.255981,-0.399963c0,-0.220032 0.360016,-0.400024 0.800018,-0.400024c0.440002,0 0.799988,-0.179993 0.799988,-0.400024c0,-0.219971 0.360016,-0.399963 0.800018,-0.399963c0.439972,0 0.799988,-0.179993 0.799988,-0.400024c0,-0.220032 0.360016,-0.399963 0.799988,-0.399963c0.785004,0 0.800018,0.266968 0.800018,14.190979l0,14.191956l2.208984,2.208008l2.208008,2.208984l9.391998,0l9.390991,0l0,-24.628967c0,-26.041992 -0.018982,-25.770996 1.771027,-25.770996c0.345978,0 0.628998,-0.179993 0.628998,-0.399963c0,-0.220032 0.359985,-0.400024 0.799988,-0.400024c0.574005,0 0.799988,-0.267029 0.799988,-0.942017c0,-0.786011 0.57901,-1.228027 3.5,-2.667969c3.647003,-1.799011 15.700012,-12.851013 15.700012,-14.395996c0,-0.791992 -5.231995,-5.998047 -6.01001,-5.981018c-0.324982,0.007996 -1.606995,0.862976 -2.850983,1.899963m4.185974,2.409058c1.604004,1.67395 1.491028,1.878967 -4.024963,7.316956c-5.081024,5.009033 -5.123016,5.039001 -11.100006,7.981995c-3.300018,1.625 -6.132019,3.140015 -6.294006,3.367004c-0.162018,0.22699 -0.296997,11.346985 -0.300018,24.712036l-0.005981,24.299988l-3.600006,0l-3.600006,0l0,-13.151001c0,-11.202026 -0.088989,-13.224976 -0.600006,-13.648987c-1.656982,-1.376038 -1.799988,-0.294006 -1.799988,13.648987l0,13.151001l-1.5,-0.000977c-1.860992,-0.002075 -3.856995,-1.18103 -4.902008,-2.89502c-0.768005,-1.26001 -0.794983,-2.057983 -0.796997,-23.554993c-0.001007,-18.377014 -0.096985,-22.330017 -0.549988,-22.707031c-0.623016,-0.516968 -1.841003,-0.190002 -1.871002,0.501038c-0.01001,0.250977 -0.729004,1.177002 -1.597015,2.057007c-0.867004,0.880005 -1.586975,1.779968 -1.599976,2c-0.012024,0.219971 -0.732025,1.119995 -1.600006,2c-1.550995,1.572998 -1.972015,2.711975 -1.183014,3.199951c0.220001,0.135986 0.399994,0.509033 0.399994,0.828003c0,0.319031 0.374023,1.377014 0.831024,2.348999c1.052979,2.23999 0.883972,3.378052 -0.631012,4.264038c-2.178986,1.271973 -2.263,1.170959 -4.321014,-5.159058c-2.221985,-6.838989 -2.267975,-6.47998 1.299011,-10.203979c1.442017,-1.505005 2.690002,-2.927002 2.77301,-3.158997c0.082001,-0.231995 1.057983,-1.388977 2.167999,-2.570984l2.018005,-2.14801l9.707977,0c6.040009,0 9.801025,-0.151001 9.955017,-0.399963c0.135986,-0.220032 0.552002,-0.406006 0.923981,-0.413025c0.372009,-0.006042 1.751007,-0.546021 3.06601,-1.200012c1.313995,-0.653015 2.574005,-1.197021 2.799988,-1.209961c1.134003,-0.064026 4.389008,-2.014038 6.15802,-3.689026c1.096985,-1.038025 2.141998,-1.890015 2.322998,-1.892029c0.181,-0.001953 1.408997,-1.074951 2.729004,-2.38501c2.734009,-2.712952 3.230988,-2.848999 4.724976,-1.28894m8.439026,2.227966c-0.678009,1.767029 -0.054993,2.450012 2.235992,2.450012l2.199982,0l0,-1.400024l0,-1.399963l-2.103973,-0.121033c-1.571014,-0.089966 -2.162994,0.028992 -2.332001,0.471008m-4.803009,6.40802c-0.822998,2.14502 -0.259003,2.442017 4.639008,2.442017l4.599976,0l0,-1.400024l0,-1.400024l-4.506989,-0.112976c-3.65799,-0.09198 -4.549988,-0.002991 -4.731995,0.471008m30.238983,1.041992l0,1.599976l-6.399963,0l-6.400024,0l0,-1.599976l0,-1.599976l6.400024,0l6.399963,0l0,1.599976m-66.799988,8c0,0.932983 0.178009,1.200012 0.800018,1.200012c0.766998,0 0.799988,0.266968 0.799988,6.399963l0,6.400024l1.200012,0l1.199982,0l0,-6.400024c0,-6.132996 0.03302,-6.399963 0.800018,-6.399963c0.621979,0 0.799988,-0.267029 0.799988,-1.200012l0,-1.200012l-2.799988,0l-2.800018,0l0,1.200012m-8.799988,11.023987c0,1.647034 -0.149017,2.531006 -0.399994,2.376038c-0.220001,-0.136047 -0.400024,-0.597046 -0.400024,-1.024048c0,-0.427002 -0.179993,-0.776001 -0.399994,-0.776001c-0.570007,0 -0.496002,-1.924988 0.100006,-2.60199c0.894989,-1.017029 1.100006,-0.640015 1.100006,2.026001m42.399994,9.776001c0,0.220032 -0.256012,0.400024 -0.567993,0.400024c-0.740021,0 -4.232025,3.492004 -4.232025,4.231995c0,0.312012 -0.179993,0.567993 -0.399963,0.567993c-0.242004,0 -0.400024,1.733032 -0.400024,4.400024c0,2.666992 0.15802,4.399963 0.400024,4.399963c0.219971,0 0.399963,0.288025 0.399963,0.640015c0,0.351013 0.559021,1.16095 1.242004,1.799988l1.243011,1.160034l-1.243011,1.159973c-0.682983,0.638977 -1.242004,1.449036 -1.242004,1.799988c0,0.352051 -0.179993,0.640015 -0.399963,0.640015c-0.248016,0 -0.400024,2.132996 -0.400024,5.599976l0,5.599976l26,0l26,0l0,-5.599976c0,-3.46698 -0.151978,-5.599976 -0.400024,-5.599976c-0.219971,0 -0.399963,-0.287964 -0.399963,-0.640015c0,-0.350952 -0.559021,-1.161011 -1.242004,-1.799988l-1.243011,-1.159973l1.243011,-1.160034c0.682983,-0.639038 1.242004,-1.448975 1.242004,-1.799988c0,-0.35199 0.179993,-0.640015 0.399963,-0.640015c0.242004,0 0.400024,-1.732971 0.400024,-4.399963c0,-2.666992 -0.15802,-4.400024 -0.400024,-4.400024c-0.219971,0 -0.399963,-0.255981 -0.399963,-0.567993c0,-0.73999 -3.492004,-4.231995 -4.231995,-4.231995c-0.312012,0 -0.567993,-0.179993 -0.567993,-0.400024c0,-0.242004 -1.733032,-0.399963 -4.400024,-0.399963c-2.666992,0 -4.399994,0.157959 -4.399994,0.399963c0,0.220032 -0.287994,0.400024 -0.639984,0.400024c-0.351013,0 -1.161011,0.55896 -1.800018,1.242004l-1.160004,1.242981l-1.160004,-1.242981c-0.639008,-0.683044 -1.449005,-1.242004 -1.799988,-1.242004c-0.35202,0 -0.639984,-0.179993 -0.639984,-0.400024c0,-0.242004 -1.733032,-0.399963 -4.400024,-0.399963c-2.666992,0 -4.399994,0.157959 -4.399994,0.399963c0,0.220032 -0.287994,0.400024 -0.639984,0.400024c-0.351013,0 -1.161011,0.55896 -1.800018,1.242004l-1.160004,1.242981l-1.160004,-1.242981c-0.639008,-0.683044 -1.449005,-1.242004 -1.799988,-1.242004c-0.35202,0 -0.639984,-0.179993 -0.639984,-0.400024c0,-0.242004 -1.733032,-0.399963 -4.400024,-0.399963c-2.666992,0 -4.399994,0.157959 -4.399994,0.399963m13.057007,17c0.53299,0.53302 0.529999,0.669983 -0.028015,1.229004c-0.897003,0.895996 -2.187988,-0.257996 -1.350983,-1.20697c0.656006,-0.744019 0.656982,-0.744019 1.378998,-0.022034m16,0c0.53299,0.53302 0.529999,0.669983 -0.028015,1.229004c-0.897003,0.895996 -2.187988,-0.257996 -1.350983,-1.20697c0.656006,-0.744019 0.656982,-0.744019 1.378998,-0.022034m122.342987,3c-0.135986,0.220032 -0.596985,0.399963 -1.023987,0.399963c-0.427002,0 -0.776001,0.180054 -0.776001,0.400024c0,0.220032 -0.275024,0.400024 -0.611023,0.400024c-0.334961,0 -1.414978,0.804993 -2.399963,1.789001c-0.984009,0.984985 -1.789001,2.065002 -1.789001,2.399963c0,0.33606 -0.180054,0.611023 -0.400024,0.611023c-0.219971,0 -0.400024,0.360046 -0.400024,0.799988c0,0.440063 -0.179932,0.800049 -0.399963,0.800049c-0.237,0 -0.400024,1.458984 -0.400024,3.575928c0,1.967041 0.179993,3.688049 0.400024,3.824036c0.220032,0.136047 0.399963,0.57196 0.399963,0.970032c0,0.904968 4.106018,5.22998 4.965027,5.22998c0.348999,0 0.63501,0.179993 0.63501,0.400024c0,0.219971 0.359985,0.399963 0.799988,0.399963c0.440002,0 0.799988,0.179993 0.799988,0.399963c0,0.237061 1.467041,0.400024 3.600098,0.400024c2.132996,0 3.599976,-0.162964 3.599976,-0.400024c0,-0.219971 0.359985,-0.399963 0.799988,-0.399963c0.439941,0 0.799927,-0.179993 0.799927,-0.399963c0,-0.220032 0.275024,-0.400024 0.610962,-0.400024c0.79303,0 4.188904,-3.395996 4.188904,-4.188965c0,-0.33606 0.179993,-0.611084 0.399963,-0.611084c0.220032,0 0.400024,-0.348999 0.400024,-0.776001c0,-0.427002 0.179993,-0.887939 0.399963,-1.023926c0.220032,-0.135986 0.400024,-1.666016 0.400024,-3.400024c0,-1.734009 -0.179993,-3.264038 -0.400024,-3.400024c-0.219971,-0.135986 -0.399963,-0.596985 -0.399963,-1.023987c0,-0.427002 -0.179993,-0.776001 -0.400024,-0.776001c-0.219971,0 -0.399963,-0.288025 -0.399963,-0.639954c0,-0.756042 -3.487915,-4.160034 -4.263916,-4.160034c-0.294922,0 -0.53595,-0.179993 -0.53595,-0.400024c0,-0.219971 -0.539978,-0.400024 -1.19989,-0.400024c-0.660034,0 -1.200012,-0.179932 -1.200012,-0.399963c0,-0.231018 -1.258972,-0.399963 -2.976013,-0.399963c-1.636963,0 -3.088074,0.179932 -3.22406,0.399963m98.199829,0c0,0.220032 -0.360046,0.399963 -0.799988,0.399963c-0.440063,0 -0.800049,0.180054 -0.800049,0.400024c0,0.220032 -0.274963,0.400024 -0.610962,0.400024c-0.794006,0 -3.968018,3.182007 -4.990967,5.004028c-0.878052,1.562988 -1.187012,8.708008 -0.398071,9.195923c0.220032,0.136047 0.400024,0.557007 0.400024,0.935059c0,0.379028 0.359985,0.947998 0.800049,1.265015c0.439941,0.316956 0.799927,0.865967 0.799927,1.220947c0,0.354004 0.494995,0.89801 1.100037,1.208984c0.60498,0.310059 1.390991,0.881042 1.747009,1.267029c0.355957,0.387024 1.120972,0.703003 1.699951,0.703003c0.579041,0 1.05304,0.179993 1.05304,0.399963c0,0.237061 1.46698,0.400024 3.600037,0.400024c2.132935,0 3.599976,-0.162964 3.599976,-0.400024c0,-0.219971 0.359985,-0.399963 0.799988,-0.399963c0.440002,0 0.799988,-0.179993 0.799988,-0.399963c0,-0.220032 0.275024,-0.400024 0.610962,-0.400024c0.79303,0 4.189087,-3.395996 4.189087,-4.188965c0,-0.33606 0.179932,-0.611084 0.399963,-0.611084c0.220032,0 0.399963,-0.438965 0.399963,-0.975952c0,-0.536987 0.180054,-1.088013 0.400024,-1.223999c0.219971,-0.135986 0.400024,-1.395996 0.400024,-2.800049c0,-1.403931 -0.180054,-2.66394 -0.400024,-2.799927c-0.219971,-0.135986 -0.400024,-0.653076 -0.400024,-1.148071c0,-0.495972 -0.359985,-1.287964 -0.799927,-1.759949c-0.440063,-0.471985 -0.800049,-1.054016 -0.800049,-1.29303c0,-0.612976 -1.855957,-2.398987 -2.494019,-2.398987c-0.291016,0 -0.78894,-0.359985 -1.105957,-0.799988c-0.338989,-0.469971 -1.035034,-0.800049 -1.687988,-0.800049c-0.612061,0 -1.112061,-0.179932 -1.112061,-0.399963c0,-0.232971 -1.333008,-0.399963 -3.199951,-0.399963c-1.867004,0 -3.200012,0.166992 -3.200012,0.399963" id="svg_36"/>
    <path fill-rule="evenodd" fill="#c13d3d" d="m379.592468,530.339111l0,1.599976l6.400024,0l6.399963,0l0,-1.599976l0,-1.599976l-6.399963,0l-6.400024,0l0,1.599976" id="svg_35"/>
    <path fill-rule="evenodd" fill="#2bb0b8" d="m345.897461,506.239136l-0.10498,14.299988l-0.899994,0.127991c-0.807007,0.114014 -0.900024,0.35199 -0.900024,2.299988c0,1.195007 -0.179993,2.171997 -0.399994,2.171997c-0.725983,0 -0.415985,0.703003 0.404999,0.916992c0.58902,0.153992 1.78302,-0.612 4.445007,-2.852966c9.769012,-8.223999 8.46701,-7.775024 12.061005,-4.154053c1.479004,1.491028 2.688995,2.978027 2.688995,3.305054c0,1.528992 -12.079987,12.588989 -15.700012,14.375l-3.5,1.725952l0,1.742004l0,1.742004l1.772003,0c1.53302,0 1.790009,-0.120972 1.900024,-0.899963l0.127991,-0.900024l25.932983,-0.200012l25.933014,-0.199951l1.166992,-1.30603l1.167023,-1.307007l0,-22.593018l0,-22.593994l-27.995026,0l-27.994995,0l-0.105011,14.300049m24.89502,-8.700012c0.440002,0.440002 0.799988,1.159973 0.799988,1.599976c0,0.710999 0.266998,0.799988 2.400024,0.799988c2.132996,0 2.399963,-0.088989 2.399963,-0.799988c0,-2.161987 0.950012,-2.399963 9.600037,-2.399963c9.813965,0 9.599976,-0.107056 9.599976,4.799988c0,2.666992 -0.132996,3.332947 -0.799988,4c-0.666992,0.666992 -1.333008,0.799988 -4,0.799988l-3.200012,0l0,2.400024l0,2.399963l3.200012,0c2.666992,0 3.333008,0.132996 4,0.799988c0.666992,0.666992 0.799988,1.333008 0.799988,4c0,4.361023 -0.438995,4.800049 -4.799988,4.800049l-3.200012,0l0,2.399963l0,2.400024l3.200012,0c2.666992,0 3.333008,0.132996 4,0.799988c0.666992,0.666992 0.799988,1.333008 0.799988,4c0,4.906982 0.213989,4.799988 -9.599976,4.799988c-9.814026,0 -9.600037,0.106995 -9.600037,-4.799988c0,-4.361023 0.439026,-4.799988 4.800018,-4.799988l3.199982,0l0,-2.400024l0,-2.399963l-3.199982,0c-4.360992,0 -4.800018,-0.439026 -4.800018,-4.800049c0,-4.360962 0.439026,-4.799988 4.800018,-4.799988l3.199982,0l0,-2.399963l0,-2.400024l-3.199982,0c-3.449982,0 -4.800018,-0.674988 -4.800018,-2.400024c0,-0.710999 -0.266968,-0.799988 -2.399963,-0.799988c-2.133026,0 -2.400024,0.088989 -2.400024,0.799988c0,2.161987 -0.950012,2.400024 -9.599976,2.400024c-9.814026,0 -9.600006,0.106995 -9.600006,-4.799988c0,-4.907043 -0.21402,-4.799988 9.600006,-4.799988c7.46698,0 8.052979,0.052979 8.799988,0.799988m0.599976,13.599976l0,1.400024l-8.599976,0l-8.600006,0l-0.131989,-0.929016c-0.298004,-2.106018 -0.343994,-2.094971 8.822998,-1.979004l8.508972,0.108032l0,1.399963m-45.636993,0.38501c-5.704987,2.539001 -5.106995,10.44696 0.937012,12.394958c4.580994,1.477051 9.582001,-3.488953 8.084015,-8.026978c-1.388,-4.208008 -5.216003,-6.060974 -9.021027,-4.367981m45.636993,6.015015l0,1.399963l-3,0c-2.833984,0 -3.006989,-0.050964 -3.131989,-0.928955c-0.266998,-1.88501 0.106018,-2.11499 3.226013,-1.989014l2.905975,0.117981l0,1.400024m-17.599976,4.41095c-1.320007,1.310059 -2.548004,2.383057 -2.729004,2.38501c-0.181,0.002014 -1.226013,0.854004 -2.322998,1.892029c-1.769012,1.674988 -5.024017,3.625 -6.15802,3.689026c-0.225983,0.012939 -1.485992,0.556946 -2.799988,1.209961c-1.315002,0.653992 -2.694,1.19397 -3.06601,1.200012c-0.371979,0.007019 -0.787994,0.192993 -0.923981,0.413025c-0.153992,0.248962 -3.915009,0.399963 -9.955017,0.399963l-9.707977,0l-2.018005,2.14801c-1.110016,1.182007 -2.085999,2.338989 -2.167999,2.570984c-0.083008,0.231995 -1.330994,1.653992 -2.77301,3.158997c-3.566986,3.723999 -3.520996,3.36499 -1.299011,10.203979c2.058014,6.330017 2.142029,6.43103 4.321014,5.159058c1.514984,-0.885986 1.68399,-2.024048 0.631012,-4.264038c-0.457001,-0.971985 -0.831024,-2.029968 -0.831024,-2.348999c0,-0.31897 -0.179993,-0.692017 -0.399994,-0.828003c-0.789001,-0.487976 -0.367981,-1.626953 1.183014,-3.199951c0.867981,-0.880005 1.587982,-1.780029 1.600006,-2c0.013,-0.220032 0.732971,-1.119995 1.599976,-2c0.868011,-0.880005 1.587006,-1.80603 1.597015,-2.057007c0.029999,-0.69104 1.247986,-1.018005 1.871002,-0.501038c0.453003,0.377014 0.548981,4.330017 0.549988,22.707031c0.002014,21.497009 0.028992,22.294983 0.796997,23.554993c1.045013,1.713989 3.041016,2.892944 4.902008,2.89502l1.5,0.000977l0,-13.151001c0,-13.942993 0.143005,-15.025024 1.799988,-13.648987c0.511017,0.424011 0.600006,2.44696 0.600006,13.648987l0,13.151001l3.600006,0l3.600006,0l0.005981,-24.299988c0.003021,-13.365051 0.138,-24.485046 0.300018,-24.712036c0.161987,-0.22699 2.993988,-1.742004 6.294006,-3.367004c5.97699,-2.942993 6.018982,-2.972961 11.100006,-7.981995c5.515991,-5.437988 5.628967,-5.643005 4.024963,-7.316956c-1.493988,-1.560059 -1.990967,-1.424011 -4.724976,1.28894m17.599976,1.989014l0,1.400024l-2.199982,0c-1.997009,0 -2.212006,-0.085999 -2.332001,-0.929016c-0.252014,-1.78302 0.161987,-2.122009 2.428009,-1.992004l2.103973,0.121033l0,1.399963m0,6.400024l0,1.400024l-4.599976,0c-4.509003,0 -4.602997,-0.018066 -4.731995,-0.929016c-0.282013,-1.997009 -0.017029,-2.106018 4.824982,-1.984009l4.506989,0.112976l0,1.400024m-40.199982,8c0,0.932983 -0.178009,1.200012 -0.799988,1.200012c-0.766998,0 -0.800018,0.266968 -0.800018,6.399963l0,6.400024l-1.199982,0l-1.200012,0l0,-6.400024c0,-6.132996 -0.03299,-6.399963 -0.799988,-6.399963c-0.622009,0 -0.800018,-0.267029 -0.800018,-1.200012l0,-1.200012l2.800018,0l2.799988,0l0,1.200012" id="svg_34"/>
   </g>
  </g>
  <g id="svg_6">
   <g id="svg_7">
    <polygon id="svg_8" opacity="0.2" fill="#FFFFFF" points="180.309,362.12 152.963,374.159 0,27.043     27.335,14.99   "/>
   </g>
   <g id="svg_9">
    <polygon id="svg_10" opacity="0.2" fill="#FFFFFF" points="232.33,357.771 204.974,369.809 52.01,22.692     79.325,10.639   "/>
   </g>
  </g>
 </g>
</svg>